{
    "app-id": "de.schmidhuberj.Flare.Devel",
    "runtime": "org.gnome.Platform",
    "runtime-version": "master",
    "sdk": "org.gnome.Sdk",
    "sdk-extensions": [
        "org.freedesktop.Sdk.Extension.rust-stable"
    ],
    "command": "flare",
    "finish-args": [
        "--share=ipc",
        "--socket=fallback-x11",
        "--socket=wayland",
        "--socket=pulseaudio",
        "--device=dri",
        "--share=network",
        "--talk-name=org.freedesktop.secrets",
        "--talk-name=org.sigxcpu.Feedback",
        "--system-talk-name=org.freedesktop.login1"
    ],
    "build-options": {
        "append-path": "/usr/lib/sdk/rust-stable/bin",
        "env": {
            "CARGO_HOME": "/run/build/flare/cargo",
            "RUST_BACKTRACE": "1",
            "RUSTFLAGS": "-L/app/lib"
        },
        "build-args": [ "--share=network" ]
    },
    "modules": [
    	{
          "name": "blueprint-compiler",
          "buildsystem": "meson",
          "cleanup": [
              "*"
          ],
          "sources": [
            {
              "type": "git",
              "url": "https://gitlab.gnome.org/jwestman/blueprint-compiler",
              "branch" : "main"
            }
          ]
        },
    	{
            "name" : "libspelling",
            "buildsystem" : "meson",
            "config-opts" : [
                "-Ddocs=false"
            ],
            "sources" : [
                {
                    "type" : "git",
                    "url" : "https://gitlab.gnome.org/chergert/libspelling.git",
                    "branch" : "main"
                }
            ]
        },
        {
            "name": "protobuf",
            "buildsystem": "autotools",
            "config-opts": [
                "DIST_LANG=cpp"
            ],
            "cleanup": [
                "/bin/protoc*",
                "/lib/libprotoc*",
                "/lib/libprotobuf-lite*"
            ],
            "sources": [
                {
                    "type": "archive",
                    "url": "https://github.com/protocolbuffers/protobuf/releases/download/v3.17.3/protobuf-all-3.17.3.tar.gz",
                    "sha256": "77ad26d3f65222fd96ccc18b055632b0bfedf295cb748b712a98ba1ac0b704b2"
                }
            ]
        },
        {
            "name": "flare",
            "buildsystem": "meson",
            "config-opts": [
                "-Dprofile=development"
            ],
            "sources" : [
                {
                    "type" : "dir",
                    "path" : "..",
                    "exclude": [
                        ".flatpak-builder"
                    ]
                }
            ]
        }
    ]
}
