<?xml version="1.0" encoding="UTF-8" standalone="no"?>
<!-- Created with Inkscape (http://www.inkscape.org/) -->

<svg
   inkscape:export-ydpi="96"
   inkscape:export-xdpi="96"
   inkscape:export-filename="Template.png"
   width="192"
   height="152"
   id="svg11300"
   sodipodi:version="0.32"
   inkscape:version="1.2.2 (b0a8486541, 2022-12-01)"
   sodipodi:docname="de.schmidhuberj.Flare.Source.svg"
   inkscape:output_extension="org.inkscape.output.svg.inkscape"
   version="1.0"
   style="display:inline;enable-background:new"
   viewBox="0 0 192 152"
   xmlns:inkscape="http://www.inkscape.org/namespaces/inkscape"
   xmlns:sodipodi="http://sodipodi.sourceforge.net/DTD/sodipodi-0.dtd"
   xmlns:xlink="http://www.w3.org/1999/xlink"
   xmlns="http://www.w3.org/2000/svg"
   xmlns:svg="http://www.w3.org/2000/svg"
   xmlns:rdf="http://www.w3.org/1999/02/22-rdf-syntax-ns#"
   xmlns:cc="http://creativecommons.org/ns#"
   xmlns:dc="http://purl.org/dc/elements/1.1/">
  <title
     id="title4162">Adwaita Icon Template</title>
  <defs
     id="defs3">
    <linearGradient
       inkscape:collect="always"
       id="linearGradient5678">
      <stop
         style="stop-color:#f8e45c;stop-opacity:1;"
         offset="0"
         id="stop5676" />
      <stop
         style="stop-color:#ff7800;stop-opacity:1;"
         offset="1"
         id="stop5674" />
    </linearGradient>
    <linearGradient
       inkscape:collect="always"
       id="linearGradient3036">
      <stop
         style="stop-color:#1c71d8;stop-opacity:1;"
         offset="0"
         id="stop3030" />
      <stop
         style="stop-color:#62a0ea;stop-opacity:1;"
         offset="0.46931836"
         id="stop3032" />
      <stop
         style="stop-color:#1c71d8;stop-opacity:1;"
         offset="1"
         id="stop3034" />
    </linearGradient>
    <linearGradient
       inkscape:collect="always"
       id="linearGradient2804">
      <stop
         style="stop-color:#3584e4;stop-opacity:1;"
         offset="0"
         id="stop2800" />
      <stop
         style="stop-color:#62a0ea;stop-opacity:1;"
         offset="1"
         id="stop2802" />
    </linearGradient>
    <linearGradient
       inkscape:collect="always"
       id="linearGradient2727">
      <stop
         style="stop-color:#1c71d8;stop-opacity:1;"
         offset="0"
         id="stop2719" />
      <stop
         style="stop-color:#62a0ea;stop-opacity:1;"
         offset="0.07142857"
         id="stop2721" />
      <stop
         style="stop-color:#1c71d8;stop-opacity:1;"
         offset="0.14285715"
         id="stop2723" />
      <stop
         style="stop-color:#1c71d8;stop-opacity:1;"
         offset="0.85714287"
         id="stop2739" />
      <stop
         style="stop-color:#62a0ea;stop-opacity:1;"
         offset="0.9285714"
         id="stop2741" />
      <stop
         style="stop-color:#1c71d8;stop-opacity:1;"
         offset="1"
         id="stop2725" />
    </linearGradient>
    <inkscape:path-effect
       effect="fillet_chamfer"
       id="path-effect4025"
       is_visible="true"
       lpeversion="1"
       nodesatellites_param="F,0,0,1,0,0,0,1 @ F,0,0,1,0,0,0,1 @ F,0,0,1,0,3.9999771,0,1 @ F,0,0,1,0,11.54938,0,1 @ F,0,0,1,0,2.8239471,0,1 @ F,0,0,1,0,0,0,1 @ F,0,0,1,0,0,0,1"
       unit="px"
       method="auto"
       mode="F"
       radius="0"
       chamfer_steps="1"
       flexible="false"
       use_knot_distance="true"
       apply_no_radius="true"
       apply_with_radius="true"
       only_selected="false"
       hide_knots="false" />
    <inkscape:path-effect
       effect="fillet_chamfer"
       id="path-effect4017"
       is_visible="true"
       lpeversion="1"
       nodesatellites_param="F,0,0,1,0,0,0,1 @ F,0,0,1,0,0,0,1 @ F,0,0,1,0,3.9999771,0,1 @ F,0,0,1,0,11.54938,0,1 @ F,0,0,1,0,2.8239471,0,1 @ F,0,0,1,0,0,0,1 @ F,0,0,1,0,0,0,1"
       unit="px"
       method="auto"
       mode="F"
       radius="0"
       chamfer_steps="1"
       flexible="false"
       use_knot_distance="true"
       apply_no_radius="true"
       apply_with_radius="true"
       only_selected="false"
       hide_knots="false" />
    <linearGradient
       inkscape:collect="always"
       xlink:href="#linearGradient3036"
       id="linearGradient7144"
       x1="31.462524"
       y1="285.99725"
       x2="39"
       y2="285.99725"
       gradientUnits="userSpaceOnUse" />
    <linearGradient
       inkscape:collect="always"
       xlink:href="#linearGradient2727"
       id="linearGradient2717"
       x1="128"
       y1="242"
       x2="240"
       y2="242"
       gradientUnits="userSpaceOnUse"
       gradientTransform="translate(-120)" />
    <linearGradient
       inkscape:collect="always"
       xlink:href="#linearGradient2804"
       id="linearGradient2749"
       x1="48"
       y1="272"
       x2="80"
       y2="204"
       gradientUnits="userSpaceOnUse" />
    <radialGradient
       inkscape:collect="always"
       xlink:href="#linearGradient5678"
       id="radialGradient1503"
       cx="93.338875"
       cy="259.46893"
       fx="93.338875"
       fy="259.46893"
       r="21.355469"
       gradientTransform="matrix(0,-1.4984459,1.4984439,0,-308.79963,395.86325)"
       gradientUnits="userSpaceOnUse" />
  </defs>
  <sodipodi:namedview
     stroke="#ef2929"
     fill="#f57900"
     id="base"
     pagecolor="#ffffff"
     bordercolor="#666666"
     borderopacity="0.25490196"
     inkscape:pageopacity="0.0"
     inkscape:pageshadow="2"
     inkscape:zoom="3.28125"
     inkscape:cx="96"
     inkscape:cy="75.885714"
     inkscape:current-layer="layer9"
     showgrid="false"
     inkscape:grid-bbox="true"
     inkscape:document-units="px"
     inkscape:showpageshadow="false"
     inkscape:window-width="1280"
     inkscape:window-height="731"
     inkscape:window-x="0"
     inkscape:window-y="0"
     width="400px"
     height="300px"
     inkscape:snap-nodes="true"
     inkscape:snap-bbox="true"
     objecttolerance="7"
     gridtolerance="12"
     guidetolerance="13"
     inkscape:window-maximized="1"
     inkscape:pagecheckerboard="false"
     showguides="false"
     inkscape:guide-bbox="true"
     inkscape:locked="false"
     inkscape:measure-start="0,0"
     inkscape:measure-end="0,0"
     inkscape:object-nodes="true"
     inkscape:bbox-nodes="true"
     inkscape:snap-global="true"
     inkscape:object-paths="true"
     inkscape:snap-intersection-paths="true"
     inkscape:snap-bbox-edge-midpoints="true"
     inkscape:snap-bbox-midpoints="true"
     showborder="true"
     inkscape:snap-center="true"
     inkscape:snap-object-midpoints="true"
     inkscape:snap-midpoints="true"
     inkscape:snap-smooth-nodes="true"
     inkscape:snap-text-baseline="true"
     borderlayer="true"
     inkscape:deskcolor="#d1d1d1">
    <inkscape:grid
       type="xygrid"
       id="grid5883"
       spacingx="2"
       spacingy="2"
       enabled="true"
       visible="true"
       empspacing="4"
       originx="8"
       originy="8" />
    <sodipodi:guide
       position="72,16"
       orientation="0,1"
       id="guide1073"
       inkscape:locked="false"
       inkscape:label=""
       inkscape:color="rgb(0,0,255)" />
    <sodipodi:guide
       position="20,72"
       orientation="1,0"
       id="guide1075"
       inkscape:locked="false"
       inkscape:label=""
       inkscape:color="rgb(0,0,255)" />
    <sodipodi:guide
       position="72,112"
       orientation="0,1"
       id="guide1099"
       inkscape:locked="false"
       inkscape:label=""
       inkscape:color="rgb(0,0,255)" />
    <sodipodi:guide
       position="72,136"
       orientation="0,1"
       id="guide993"
       inkscape:locked="false"
       inkscape:label=""
       inkscape:color="rgb(0,0,255)" />
    <sodipodi:guide
       position="112,72"
       orientation="1,0"
       id="guide995"
       inkscape:locked="false"
       inkscape:label=""
       inkscape:color="rgb(0,0,255)" />
    <sodipodi:guide
       position="8.0000001,72"
       orientation="1,0"
       id="guide867"
       inkscape:locked="false"
       inkscape:label=""
       inkscape:color="rgb(0,0,255)" />
    <sodipodi:guide
       position="128,72"
       orientation="1,0"
       id="guide869"
       inkscape:locked="false"
       inkscape:label=""
       inkscape:color="rgb(0,0,255)" />
    <sodipodi:guide
       position="72,124"
       orientation="0,1"
       id="guide871"
       inkscape:locked="false"
       inkscape:label=""
       inkscape:color="rgb(0,0,255)" />
    <inkscape:grid
       type="xygrid"
       id="grid873"
       spacingx="1"
       spacingy="1"
       empspacing="8"
       color="#000000"
       opacity="0.49019608"
       empcolor="#000000"
       empopacity="0.08627451"
       dotted="true"
       originx="8"
       originy="8" />
    <sodipodi:guide
       position="32,72"
       orientation="1,0"
       id="guide877"
       inkscape:locked="false"
       inkscape:label=""
       inkscape:color="rgb(0,0,255)" />
    <sodipodi:guide
       position="124,72"
       orientation="1,0"
       id="guide879"
       inkscape:locked="false"
       inkscape:label=""
       inkscape:color="rgb(0,0,255)" />
    <sodipodi:guide
       position="72,128"
       orientation="0,1"
       id="guide881"
       inkscape:locked="false"
       inkscape:label=""
       inkscape:color="rgb(0,0,255)" />
    <sodipodi:guide
       position="72,20"
       orientation="0,1"
       id="guide883"
       inkscape:locked="false"
       inkscape:label=""
       inkscape:color="rgb(0,0,255)" />
    <sodipodi:guide
       position="16,72"
       orientation="1,0"
       id="guide885"
       inkscape:locked="false"
       inkscape:label=""
       inkscape:color="rgb(0,0,255)" />
    <sodipodi:guide
       position="136,72"
       orientation="1,0"
       id="guide887"
       inkscape:locked="false"
       inkscape:label=""
       inkscape:color="rgb(0,0,255)" />
    <sodipodi:guide
       position="72,8"
       orientation="0,1"
       id="guide897"
       inkscape:locked="false"
       inkscape:label=""
       inkscape:color="rgb(0,0,255)" />
    <sodipodi:guide
       position="72,32"
       orientation="0,1"
       id="guide899"
       inkscape:locked="false"
       inkscape:label=""
       inkscape:color="rgb(0,0,255)" />
    <sodipodi:guide
       position="264,264"
       orientation="-0.70710678,0.70710678"
       id="guide950"
       inkscape:locked="false"
       inkscape:label=""
       inkscape:color="rgb(0,0,255)" />
    <sodipodi:guide
       position="72,72"
       orientation="0.70710678,0.70710678"
       id="guide952"
       inkscape:locked="false"
       inkscape:label=""
       inkscape:color="rgb(0,0,255)" />
  </sodipodi:namedview>
  <metadata
     id="metadata4">
    <rdf:RDF>
      <cc:Work
         rdf:about="">
        <dc:format>image/svg+xml</dc:format>
        <dc:type
           rdf:resource="http://purl.org/dc/dcmitype/StillImage" />
        <dc:creator>
          <cc:Agent>
            <dc:title>GNOME Design Team</dc:title>
          </cc:Agent>
        </dc:creator>
        <dc:source />
        <cc:license
           rdf:resource="http://creativecommons.org/licenses/by-sa/4.0/" />
        <dc:title>Adwaita Icon Template</dc:title>
        <dc:subject>
          <rdf:Bag />
        </dc:subject>
        <dc:date />
        <dc:rights>
          <cc:Agent>
            <dc:title />
          </cc:Agent>
        </dc:rights>
        <dc:publisher>
          <cc:Agent>
            <dc:title />
          </cc:Agent>
        </dc:publisher>
        <dc:identifier />
        <dc:relation />
        <dc:language />
        <dc:coverage />
        <dc:description />
        <dc:contributor>
          <cc:Agent>
            <dc:title />
          </cc:Agent>
        </dc:contributor>
      </cc:Work>
      <cc:License
         rdf:about="http://creativecommons.org/licenses/by-sa/4.0/">
        <cc:permits
           rdf:resource="http://creativecommons.org/ns#Reproduction" />
        <cc:permits
           rdf:resource="http://creativecommons.org/ns#Distribution" />
        <cc:requires
           rdf:resource="http://creativecommons.org/ns#Notice" />
        <cc:requires
           rdf:resource="http://creativecommons.org/ns#Attribution" />
        <cc:permits
           rdf:resource="http://creativecommons.org/ns#DerivativeWorks" />
        <cc:requires
           rdf:resource="http://creativecommons.org/ns#ShareAlike" />
      </cc:License>
    </rdf:RDF>
  </metadata>
  <g
     id="layer1"
     inkscape:label="App Icon"
     inkscape:groupmode="layer"
     style="display:inline"
     transform="translate(8,-156)">
    <g
       inkscape:groupmode="layer"
       id="layer4"
       inkscape:label="template"
       style="display:inline"
       sodipodi:insensitive="true">
      <rect
         inkscape:label="0"
         y="172"
         x="9.2651362e-08"
         height="128"
         width="128"
         id="hicolor"
         style="display:inline;overflow:visible;visibility:visible;fill:#f0f0f0;fill-opacity:0;fill-rule:nonzero;stroke:none;stroke-width:0.5;marker:none;enable-background:accumulate" />
      <rect
         style="display:inline;overflow:visible;visibility:visible;fill:#f0f0f0;fill-opacity:0;fill-rule:nonzero;stroke:none;stroke-width:0.5;marker:none;enable-background:accumulate"
         id="symbolic"
         width="16"
         height="16"
         x="160"
         y="172"
         inkscape:label="0" />
    </g>
    <g
       inkscape:groupmode="layer"
       id="layer2"
       inkscape:label="baseplate"
       style="display:inline"
       sodipodi:insensitive="true">
      <g
         style="display:inline;fill:#000000;enable-background:new"
         transform="matrix(7.9911709,0,0,8.0036407,-167.7909,-4846.0776)"
         id="g12027"
         inkscape:export-xdpi="12"
         inkscape:export-ydpi="12" />
      <rect
         style="display:inline;overflow:visible;visibility:visible;fill:#f0f0f0;fill-opacity:1;fill-rule:nonzero;stroke:none;stroke-width:0.5;marker:none;enable-background:accumulate"
         id="128"
         width="128"
         height="128"
         x="9.2651362e-08"
         y="172"
         inkscape:label="0" />
      <g
         id="g883"
         style="fill:none;fill-opacity:0.25098;stroke:#a579b3;stroke-opacity:1"
         transform="translate(-24,24)" />
      <g
         id="g900"
         style="fill:none;fill-opacity:0.25098;stroke:#a579b3;stroke-opacity:1"
         transform="translate(-24,24)" />
      <rect
         inkscape:label=""
         y="172"
         x="160"
         height="16"
         width="16"
         id="16"
         style="display:inline;overflow:visible;visibility:visible;fill:#f0f0f0;fill-opacity:1;fill-rule:nonzero;stroke:none;stroke-width:0.5;marker:none;enable-background:accumulate" />
      <text
         xml:space="preserve"
         style="font-style:normal;font-variant:normal;font-weight:bold;font-stretch:normal;font-size:4px;line-height:125%;font-family:Cantarell;-inkscape-font-specification:'Cantarell, Bold';text-align:start;writing-mode:lr-tb;text-anchor:start;display:inline;fill:#000000;fill-opacity:1;stroke:none;stroke-width:0.332649;enable-background:new"
         x="0"
         y="167"
         id="text863"
         inkscape:label="icon-name"><tspan
           style="font-size:4px;stroke-width:0.332649"
           sodipodi:role="line"
           id="tspan861"
           x="0"
           y="167">Hicolor</tspan></text>
      <text
         inkscape:label="icon-name"
         id="text867"
         y="167"
         x="160"
         style="font-style:normal;font-variant:normal;font-weight:bold;font-stretch:normal;font-size:4px;line-height:125%;font-family:Cantarell;-inkscape-font-specification:'Cantarell, Bold';text-align:start;writing-mode:lr-tb;text-anchor:start;display:inline;fill:#000000;fill-opacity:1;stroke:none;stroke-width:0.332649;enable-background:new"
         xml:space="preserve"><tspan
           y="167"
           x="160"
           id="tspan865"
           sodipodi:role="line"
           style="font-size:4px;stroke-width:0.332649">Symbolic</tspan></text>
    </g>
    <g
       inkscape:groupmode="layer"
       id="layer9"
       inkscape:label="icons"
       style="display:inline">
      <path
         id="path4021"
         style="display:inline;fill:url(#linearGradient7144);fill-opacity:1;fill-rule:evenodd;stroke:none;stroke-width:1px;stroke-linecap:butt;stroke-linejoin:miter;stroke-opacity:1;enable-background:new"
         d="m 24,272 v 12 h 4.000023 A 3.9999771,3.9999771 45 0 1 32,287.99998 V 295 a 4.9960602,4.9960602 23.392466 0 0 8.417056,3.64107 L 53.94194,285.93367 A 7.1297371,7.1297371 158.39247 0 1 58.823947,284 H 68 v -12 z"
         inkscape:path-effect="#path-effect4025"
         inkscape:original-d="m 24,272 v 12 h 8 v 22.54938 L 56,284 h 12 v -12 z"
         sodipodi:nodetypes="cccccccc" />
      <rect
         style="fill:url(#linearGradient2717);fill-opacity:1;stroke:none;stroke-width:16;stroke-linecap:square;stroke-linejoin:round;stroke-opacity:0.129412;paint-order:markers stroke fill"
         id="rect2709"
         width="112"
         height="84"
         x="8"
         y="200"
         rx="16"
         ry="16" />
      <rect
         style="fill:url(#linearGradient2749);fill-opacity:1;stroke:none;stroke-width:16;stroke-linecap:square;stroke-linejoin:round;stroke-opacity:0.129412;paint-order:markers stroke fill"
         id="rect1118"
         width="112"
         height="84"
         x="8"
         y="196"
         rx="16"
         ry="16" />
      <path
         id="path533"
         style="display:inline;fill:#3584e4;fill-opacity:1;fill-rule:evenodd;stroke:none;stroke-width:1px;stroke-linecap:butt;stroke-linejoin:miter;stroke-opacity:1;enable-background:new"
         d="m 24,278 v 2 h 4.000023 A 3.9999771,3.9999771 45 0 1 32,283.99998 V 291 a 4.9960602,4.9960602 23.392466 0 0 8.417056,3.64107 L 53.94194,281.93367 A 7.1297371,7.1297371 158.39247 0 1 58.823947,280 H 68 v -2 z"
         inkscape:path-effect="#path-effect4017"
         inkscape:original-d="m 24,278 v 2 h 8 v 22.54938 L 56,280 h 12 v -2 z"
         sodipodi:nodetypes="cccccccc" />
      <path
         id="path886"
         style="fill:url(#radialGradient1503);fill-opacity:1;stroke-width:3"
         d="m 63.917969,220.36328 v 0.0117 c -1.289068,0.0351 -2.332041,0.64453 -3.011719,1.24219 -0.667978,0.59766 -1.101583,1.21873 -1.488281,1.86328 -0.773458,1.28904 -1.324213,2.70703 -1.863281,4.11328 -0.53907,1.39452 -1.031262,2.78907 -1.488282,3.80859 -0.246,0.5625 -0.187504,0.48047 -0.339844,0.70313 l -10.183593,-0.0234 c -1.149351,-0.0101 -2.167557,0.60338 -2.697266,1.54297 0.25395,0.53916 0.573929,1.02621 0.869141,1.48828 0.808588,1.25391 1.828127,2.4375 2.859375,3.59766 1.031248,1.14843 2.062528,2.24999 2.847656,3.16406 0.489247,0.57819 0.838814,1.11834 1.025391,1.39648 -0.02188,0.21682 -0.03189,0.74135 -0.205078,1.33399 -0.140111,0.47961 -0.329345,1.04332 -0.533204,1.63476 -0.239444,0.6947 -0.501733,1.43232 -0.767578,2.18555 -0.480478,1.40625 -0.960922,2.82424 -1.195312,4.28906 -0.1173,0.72657 -0.186936,1.47656 -0.02344,2.35547 0.03999,0.23373 0.108101,0.48731 0.203125,0.74805 v 0 c 0.267064,0.7328 0.762578,1.51991 1.566407,2.06445 1.078136,0.72654 2.320318,0.80861 3.222656,0.70313 0.914068,-0.1056 1.64063,-0.37501 2.355468,-0.67969 1.441408,-0.60939 2.789074,-1.45314 4.125,-2.29687 1.324228,-0.84375 2.625014,-1.68751 3.644532,-2.27344 0.51378,-0.29192 1.011725,-0.46762 1.300781,-0.57032 0.273538,0.10037 0.752317,0.27051 1.242187,0.5586 0.99609,0.58593 2.250014,1.45311 3.550782,2.30859 1.300796,0.84375 2.601566,1.69924 4.007812,2.32031 0.69141,0.30471 1.417992,0.58596 2.332032,0.69141 0.914068,0.1056 2.203142,-10e-6 3.28125,-0.78515 0.117298,-0.0936 0.234273,-0.19921 0.339843,-0.30469 0.627219,-0.62248 1.013652,-1.34068 1.244141,-2.07617 v 0 c 0.337948,-1.07842 0.331852,-2.19558 0.185547,-3.11524 -0.246,-1.53516 -0.796881,-2.91796 -1.324219,-4.24219 -0.266679,-0.66967 -0.534679,-1.32131 -0.769531,-1.92773 -0.229553,-0.59273 -0.427386,-1.14227 -0.566407,-1.62305 -0.241617,-0.83604 -0.223075,-1.32456 -0.220703,-1.45508 0.105227,-0.0953 0.482473,-0.66034 1.076172,-1.22851 0.820318,-0.79689 1.945315,-1.78124 3.070313,-2.85938 1.124998,-1.06641 2.249987,-2.2031 3.140625,-3.57422 0.308797,-0.47943 0.60048,-1.02814 0.826172,-1.62109 -0.494587,-1.04501 -1.563237,-1.72738 -2.771485,-1.73828 H 71.992188 c -0.0585,-0.0936 -0.05839,-0.0702 -0.117188,-0.19922 -0.43359,-0.83202 -0.960932,-2.2383 -1.5,-3.70312 -0.527338,-1.47657 -1.078129,-3.01173 -1.792969,-4.39453 -0.363268,-0.69138 -0.750013,-1.35938 -1.394531,-2.01563 -0.644518,-0.66798 -1.781265,-1.4414 -3.269531,-1.41797 z"
         sodipodi:nodetypes="ccccccccccccccsccccccccccccccccccccsscccccccccccccc" />
      <path
         style="fill:#1c71d8;stroke-width:3"
         d="m 63.917969,216.36328 v 0.0117 c -1.289069,0.0351 -2.33204,0.64453 -3.011719,1.24219 -0.667979,0.59766 -1.101582,1.21873 -1.488281,1.86328 -0.773459,1.28904 -1.324212,2.70703 -1.863281,4.11328 -0.53907,1.39452 -1.031262,2.78907 -1.488282,3.80859 -0.246,0.5625 -0.187504,0.48047 -0.339844,0.70313 l -10.183593,-0.0234 c -1.359389,-0.012 -2.542977,0.84373 -2.941407,2.08594 -0.438979,1.42109 -0.197482,2.51943 0.244141,3.45703 0.529709,-0.93959 1.547914,-1.55311 2.697266,-1.54297 l 10.183593,0.0234 c 0.15234,-0.22266 0.09384,-0.14063 0.339844,-0.70313 0.45702,-1.01952 0.949212,-2.41407 1.488282,-3.80859 0.539069,-1.40625 1.089822,-2.82424 1.863281,-4.11328 0.386699,-0.64455 0.820302,-1.26562 1.488281,-1.86328 0.679679,-0.59766 1.72265,-1.20709 3.011719,-1.24219 v -0.0117 c 1.488268,-0.0234 2.625012,0.74999 3.269531,1.41797 0.644519,0.65625 1.031262,1.32425 1.394531,2.01563 0.71484,1.38281 1.26563,2.91796 1.792969,4.39453 0.539069,1.46483 1.06641,2.8711 1.5,3.70312 0.0588,0.129 0.05869,0.10562 0.117188,0.19922 h 10.792968 c 1.208249,0.0109 2.276898,0.69327 2.771485,1.73828 0.425228,-1.11718 0.601282,-2.40279 0.111328,-3.75781 -0.43362,-1.18362 -1.582044,-1.96874 -2.882813,-1.98047 H 71.992188 c -0.0585,-0.0936 -0.05839,-0.0702 -0.117188,-0.19922 -0.43359,-0.83202 -0.960931,-2.23829 -1.5,-3.70312 -0.527339,-1.47657 -1.078129,-3.01172 -1.792969,-4.39453 -0.363269,-0.69138 -0.750012,-1.35938 -1.394531,-2.01563 -0.644519,-0.66798 -1.781263,-1.4414 -3.269531,-1.41797 z"
         id="path434" />
      <path
         id="path15576"
         style="fill:#241f31"
         d="M 163 173 C 161.338 173 160 174.338 160 176 L 160 183 C 160 184.662 161.338 186 163 186 L 165 186 L 169.55859 186 L 173 186 C 174.662 186 176 184.662 176 183 L 176 176 C 176 174.338 174.662 173 173 173 L 169.48828 173 L 165 173 L 163 173 z M 168 175.99805 C 168.2798 175.99835 168.52749 176.17899 168.61328 176.44531 L 169.17383 178.18359 L 171 178.17969 C 171.62628 178.1787 171.88651 178.98081 171.37891 179.34766 L 169.90039 180.41797 L 170.46875 182.15234 C 170.66667 182.749 169.98109 183.24737 169.47461 182.875 L 168 181.79688 L 166.52539 182.87305 C 166.01986 183.24313 165.33675 182.7479 165.53125 182.15234 L 166.09961 180.41797 L 164.62109 179.34766 C 164.11349 178.98081 164.37371 178.17869 165 178.17969 L 166.82617 178.18359 L 167.38672 176.44531 C 167.47252 176.17899 167.7202 175.99835 168 175.99805 z " />
      <path
         style="fill:#241f31"
         d="m 164,184 v 4 h 1 l 4,-4 z"
         id="path15578"
         sodipodi:nodetypes="ccccc" />
      <path
         id="path435"
         style="fill:#241f31;fill-opacity:0.35"
         d="m 168,175.99741 c 0.2798,3e-4 0.52749,0.18095 0.61328,0.44727 l 0.56054,1.73828 1.82618,-0.004 c 0.62628,-9.9e-4 0.8865,0.80112 0.3789,1.16797 l -1.47851,1.07031 0.56836,1.73438 c 0.19792,0.59666 -0.48767,1.09502 -0.99415,0.72265 L 168,181.79615 l -1.47461,1.07617 c -0.50553,0.37008 -1.18864,-0.12514 -0.99414,-0.7207 l 0.56835,-1.73438 -1.47851,-1.07031 c -0.5076,-0.36685 -0.24738,-1.16897 0.37891,-1.16797 l 1.82617,0.004 0.56054,-1.73828 c 0.0858,-0.26632 0.33349,-0.44697 0.61329,-0.44727 z" />
    </g>
    <g
       inkscape:groupmode="layer"
       id="layer3"
       inkscape:label="grid"
       style="display:none"
       sodipodi:insensitive="true">
      <circle
         cx="64.000031"
         cy="236"
         r="59.504131"
         id="circle2892"
         style="display:inline;opacity:0.1;vector-effect:none;fill:none;fill-opacity:1;stroke:#000000;stroke-width:0.99;stroke-linecap:butt;stroke-linejoin:miter;stroke-miterlimit:4;stroke-dasharray:0.99, 0.99;stroke-dashoffset:0;stroke-opacity:1;marker:none;marker-start:none;marker-mid:none;marker-end:none;paint-order:normal;enable-background:new" />
      <rect
         ry="7.9292889"
         rx="8.701004"
         y="180.49496"
         x="20.495007"
         height="111.01005"
         width="87.009987"
         id="rect2894"
         style="display:inline;opacity:0.1;vector-effect:none;fill:none;fill-opacity:1;stroke:#000000;stroke-width:0.99;stroke-linecap:butt;stroke-linejoin:miter;stroke-miterlimit:4;stroke-dasharray:0.99, 0.99;stroke-dashoffset:0;stroke-opacity:1;marker:none;marker-start:none;marker-mid:none;marker-end:none;paint-order:normal;enable-background:new" />
      <rect
         ry="7.9238095"
         rx="7.9238095"
         y="184.49524"
         x="12.495266"
         height="103.00952"
         width="103.00952"
         id="rect2896"
         style="display:inline;opacity:0.1;vector-effect:none;fill:none;fill-opacity:1;stroke:#000000;stroke-width:0.99;stroke-linecap:butt;stroke-linejoin:miter;stroke-miterlimit:4;stroke-dasharray:0.99, 0.99;stroke-dashoffset:0;stroke-opacity:1;marker:none;marker-start:none;marker-mid:none;marker-end:none;paint-order:normal;enable-background:new" />
      <rect
         ry="8.701005"
         rx="7.9292889"
         y="200.49496"
         x="8.4950066"
         height="87.010048"
         width="111.01004"
         id="rect2898"
         style="display:inline;opacity:0.1;vector-effect:none;fill:none;fill-opacity:1;stroke:#000000;stroke-width:0.99;stroke-linecap:butt;stroke-linejoin:miter;stroke-miterlimit:4;stroke-dasharray:0.99, 0.99;stroke-dashoffset:0;stroke-opacity:1;marker:none;marker-start:none;marker-mid:none;marker-end:none;paint-order:normal;enable-background:new" />
      <path
         inkscape:connector-curvature="0"
         id="path2900"
         d="M 2.6203015e-5,288.99999 H 128.00003"
         style="display:inline;fill:none;stroke:#62a0ea;stroke-width:2;stroke-linecap:butt;stroke-linejoin:miter;stroke-miterlimit:4;stroke-dasharray:none;stroke-opacity:1;enable-background:new" />
    </g>
  </g>
</svg>
