<svg xmlns="http://www.w3.org/2000/svg" width="16" height="16">
    <g fill="#241f31">
        <path d="M3 1C1.34 1 0 2.34 0 4v7c0 1.66 1.34 3 3 3h10c1.66 0 3-1.34 3-3V4c0-1.66-1.34-3-3-3zm5 3c.281 0 .527.18.613.445l.563 1.739L11 6.18c.625 0 .887.8.379 1.168l-1.48 1.07.57 1.734c.199.598-.489 1.094-.992.723L8 9.797l-1.477 1.078c-.503.367-1.187-.129-.992-.723l.57-1.734-1.48-1.07C4.113 6.98 4.375 6.18 5 6.18l1.824.004.563-1.739A.643.643 0 0 1 8 4zm0 0"/>
        <path d="M4 12v4h1l4-4zm0 0"/>
        <path fill-opacity=".349" d="M8 3.996c.281 0 .527.184.613.45l.559 1.738L11 6.18c.625 0 .887.8.379 1.168l-1.48 1.07.57 1.734c.199.598-.489 1.094-.996.723L8 9.797 6.523 10.87c-.503.371-1.187-.125-.992-.719l.567-1.734-1.477-1.07C4.113 6.98 4.375 6.18 5 6.18l1.824.004.563-1.739A.646.646 0 0 1 8 3.996zm0 0"/>
    </g>
</svg>
